Cancel Account Summary — cancel_account_summary • InteractiveTradeR
…
    See also

    Other treasury: 
cancel_account_updates_multi(),
req_account_summary(),
req_account_updates_multi(),
req_account_updates()

    Examples

# Fetch ACCOUNTS for all tags and groupName = "All", without creating
# a subscription.

req_account_summary()
#> # A tibble: 137 x 4
#>    account   tag                 tag_value  currency
#>  * <chr>     <chr>               <chr>      <chr>   
#>  1 DF1267859 AccountType         INDIVIDUAL ""      
#>  2 DF1267859 Cushion             1          ""      
#>  3 DF1267859 LookAheadNextChange 0          ""      
#>  4 DF1267859 AccruedCash         0.00       "USD"   
#>  5 DF1267859 AvailableFunds      0.00       "USD"   
#>  6 DF1267859 BuyingPower         0.00       "USD"   
#>  7 DF1267859 EquityWithLoanValue 0.00       "USD"   
#>  8 DF1267859 ExcessLiquidity     0.00       "USD"   
#>  9 DF1267859 FullAvailableFunds  0.00       "USD"   
#> 10 DF1267859 FullExcessLiquidity 0.00       "USD"   
#> # … with 127 more rows

# View the updated ACCOUNTS object in the treasury
treasury$ACCOUNTS
#> # A tibble: 137 x 4
#>    account   tag                 tag_value  currency
#>  * <chr>     <chr>               <chr>      <chr>   
#>  1 DF1267859 AccountType         INDIVIDUAL ""      
#>  2 DF1267859 Cushion             1          ""      
#>  3 DF1267859 LookAheadNextChange 0          ""      
#>  4 DF1267859 AccruedCash         0.00       "USD"   
#>  5 DF1267859 AvailableFunds      0.00       "USD"   
#>  6 DF1267859 BuyingPower         0.00       "USD"   
#>  7 DF1267859 EquityWithLoanValue 0.00       "USD"   
#>  8 DF1267859 ExcessLiquidity     0.00       "USD"   
#>  9 DF1267859 FullAvailableFunds  0.00       "USD"   
#> 10 DF1267859 FullExcessLiquidity 0.00       "USD"   
#> # … with 127 more rows
…
# As above, using some example $LEDGER tags:
treasury$ACCOUNTS <- NULL
req_account_summary(tags = c("TotalCashValue", "BuyingPower", "$LEDGER"))
#> # A tibble: 156 x 4
#>    account   tag               tag_value currency
#>  * <chr>     <chr>             <chr>     <chr>   
#>  1 DF1267859 BuyingPower       0.00      USD     
#>  2 DF1267859 TotalCashValue    0.00      USD     
#>  3 DF1267859 Currency          BASE      BASE    
#>  4 DF1267859 CashBalance       0.00      BASE    
#>  5 DF1267859 TotalCashBalance  0.00      BASE    
#>  6 DF1267859 AccruedCash       0.00      BASE    
#>  7 DF1267859 StockMarketValue  0.00      BASE    
#>  8 DF1267859 OptionMarketValue 0.00      BASE    
#>  9 DF1267859 FutureOptionValue 0.00      BASE    
#> 10 DF1267859 FuturesPNL        0.00      BASE    
#> # … with 146 more rows
treasury$ACCOUNTS
#> # A tibble: 156 x 4
#>    account   tag               tag_value currency
#>  * <chr>     <chr>             <chr>     <chr>   
#>  1 DF1267859 BuyingPower       0.00      USD     
#>  2 DF1267859 TotalCashValue    0.00      USD     
#>  3 DF1267859 Currency          BASE      BASE    
#>  4 DF1267859 CashBalance       0.00      BASE    
#>  5 DF1267859 TotalCashBalance  0.00      BASE    
#>  6 DF1267859 AccruedCash       0.00      BASE    
#>  7 DF1267859 StockMarketValue  0.00      BASE    
#>  8 DF1267859 OptionMarketValue 0.00      BASE    
#>  9 DF1267859 FutureOptionValue 0.00      BASE    
#> 10 DF1267859 FuturesPNL        0.00      BASE    
#> # … with 146 more rows

treasury$ACCOUNTS <- NULL
req_account_summary(tags = c("TotalCashValue", "BuyingPower", "$LEDGER:ALL"))
#> # A tibble: 84 x 4
#>    account   tag            tag_value  currency
#>  * <chr>     <chr>          <chr>      <chr>   
#>  1 DF1267859 BuyingPower    0.00       USD     
#>  2 DF1267859 TotalCashValue 0.00       USD     
#>  3 DU1267860 BuyingPower    4074106.40 USD     
#>  4 DU1267860 TotalCashValue 1014815.02 USD     
#>  5 DU1267861 BuyingPower    3803879.54 USD     
#>  6 DU1267861 TotalCashValue 818305.42  USD     
#>  7 DU1267862 BuyingPower    4077241.78 USD     
#>  8 DU1267862 TotalCashValue 1021574.88 USD     
#>  9 DU1267863 BuyingPower    4082950.47 USD     
#> 10 DU1267863 TotalCashValue 1020092.16 USD     
#> # … with 74 more rows
treasury$ACCOUNTS
#> # A tibble: 84 x 4
#>    account   tag            tag_value  currency
#>  * <chr>     <chr>          <chr>      <chr>   
#>  1 DF1267859 BuyingPower    0.00       USD     
#>  2 DF1267859 TotalCashValue 0.00       USD     
#>  3 DU1267860 BuyingPower    4074106.40 USD     
#>  4 DU1267860 TotalCashValue 1014815.02 USD     
#>  5 DU1267861 BuyingPower    3803879.54 USD     
#>  6 DU1267861 TotalCashValue 818305.42  USD     
#>  7 DU1267862 BuyingPower    4077241.78 USD     
#>  8 DU1267862 TotalCashValue 1021574.88 USD     
#>  9 DU1267863 BuyingPower    4082950.47 USD     
#> 10 DU1267863 TotalCashValue 1020092.16 USD     
#> # … with 74 more rows
…
#### This example involves setting up account summary subscriptions. Make sure
#### that you actually have positions whose values are changing; i.e.,
#### accounts aren't empty, the market is currently open, etc.

## Open up a socket connection (unless you have one open already):
create_new_connections(1)

# Start an account summary subscription for the default group ("All") using
# all of the possible tags:
req_account_summary(channel = "async")

# Within three minutes of starting the subscription, take a look at the
# ACCOUNTS object in the treasury:
treasury$ACCOUNTS
#> # A tibble: 209 x 4
#>    account   tag                 tag_value  currency
#>  * <chr>     <chr>               <chr>      <chr>   
#>  1 DF1267859 AccountType         INDIVIDUAL ""      
#>  2 DF1267859 Cushion             1          ""      
#>  3 DF1267859 LookAheadNextChange 0          ""      
#>  4 DF1267859 AccruedCash         0.00       "USD"   
#>  5 DF1267859 AvailableFunds      0.00       "USD"   
#>  6 DF1267859 BuyingPower         0.00       "USD"   
#>  7 DF1267859 EquityWithLoanValue 0.00       "USD"   
#>  8 DF1267859 ExcessLiquidity     0.00       "USD"   
#>  9 DF1267859 FullAvailableFunds  0.00       "USD"   
#> 10 DF1267859 FullExcessLiquidity 0.00       "USD"   
#> # … with 199 more rows
…
# So, wait a while. For example's sake, let's wait a little over 3 minutes:
Sys.sleep(200)

# Keep calling...
read_sock_drawer()

# ...a few times, waiting 10 or 20 seconds in between calls. After 3 minutes
# have passed -- and probably before that -- you should see the
# ACCOUNTS object update.

# After updating, take a look in your treasury...
treasury$ACCOUNTS
#> # A tibble: 209 x 4
#>    account   tag                 tag_value  currency
#>  * <chr>     <chr>               <chr>      <chr>   
#>  1 DF1267859 NetLiquidation      0.00       "USD"   
#>  2 DU1267860 Cushion             0.998882   ""      
#>  3 DU1267860 EquityWithLoanValue 1019666.30 "USD"   
#>  4 DU1267860 NetLiquidation      1019666.30 "USD"   
#>  5 DU1267860 BuyingPower         4074103.59 "USD"   
#>  6 DU1267860 GrossPositionValue  4561.60    "USD"   
#>  7 DU1267860 InitMarginReq       1140.40    "USD"   
#>  8 DU1267860 MaintMarginReq      1140.40    "USD"   
#>  9 DU1267860 AvailableFunds      1018525.90 "USD"   
#> 10 DU1267860 ExcessLiquidity     1018525.90 "USD"   
#> # … with 199 more rows
…
