Request Contract Details — req_contract_details • InteractiveTradeR
…
# You can select, manipulate, and view the fetched details:
contract_details$exchange_info # View the exchange info
#> [[1]]
#> # A tibble: 21 x 2
#>    validExchanges marketRuleIds
#>    <chr>          <chr>        
#>  1 SMART          26           
#>  2 AMEX           26           
#>  3 NYSE           26           
#>  4 CBOE           26           
#>  5 PHLX           26           
#>  6 ISE            26           
#>  7 CHX            26           
#>  8 ARCA           26           
#>  9 ISLAND         26           
#> 10 DRCTEDGE       26           
#> # … with 11 more rows
…
# But what if you didn't already know IBM's conId?

# 2) You could try to get IBM's contract details by symbol only, but because
# there are many securities across many exchanges that have the symbol "IBM"
# this query won't work -- IB responds by asking for more info.
contract_details_1 <- req_contract_details(contract = c(symbol = "IBM"))

# 3) So, try providing a valid security type:
contract_details_2 <- req_contract_details(
  contract = c(symbol = "IBM", secType  = "STK")
)
contract_details_2
#> # A tibble: 28 x 24
#>    symbol secType exchange currency localSymbol marketName tradingClass  conId
#>    <chr>  <chr>   <chr>    <chr>    <chr>       <chr>      <chr>         <dbl>
#>  1 IBM    STK     SMART    USD      IBM         IBM        IBM          8.31e3
#>  2 IBM    STK     AMEX     USD      IBM         IBM        IBM          8.31e3
#>  3 IBM    STK     SMART    EUR      IBM         XETRA      XETRA        1.41e6
#>  4 IBM    STK     NYSE     USD      IBM         IBM        IBM          8.31e3
#>  5 IBM    STK     CBOE     USD      IBM         IBM        IBM          8.31e3
#>  6 IBM    STK     PHLX     USD      IBM         IBM        IBM          8.31e3
#>  7 IBM    STK     ISE      USD      IBM         IBM        IBM          8.31e3
#>  8 IBM    STK     CHX      USD      IBM         IBM        IBM          8.31e3
#>  9 IBM    STK     ARCA     USD      IBM         IBM        IBM          8.31e3
#> 10 IBM    STK     ISLAND   USD      IBM         IBM        IBM          8.31e3
#> # … with 18 more rows, and 16 more variables: minTick <dbl>,
#> #   mdSizeMultiplier <dbl>, orderTypes <chr>, priceMagnifier <dbl>,
#> #   longName <chr>, primaryExchange <chr>, industry <chr>, category <chr>,
#> #   subcategory <chr>, timeZoneId <chr>, tradingHours <chr>, liquidHours <chr>,
#> #   secIdList <list>, aggGroup <dbl>, stockType <chr>, exchange_info <list>

# This call will work, but returns ALL of the contracts whose symbol is "IBM".
# Only one of these is the contract of interest, so this doesn't help much.

# 4) Narrow things down by specifying a currency:
contract_details_3 <- req_contract_details(
  contract = c(
    symbol   = "IBM",
    secType  = "STK",
    currency = "USD"
  )
)
contract_details_3
#> # A tibble: 21 x 23
#>    symbol secType exchange currency localSymbol marketName tradingClass conId
#>    <chr>  <chr>   <chr>    <chr>    <chr>       <chr>      <chr>        <dbl>
#>  1 IBM    STK     SMART    USD      IBM         IBM        IBM           8314
#>  2 IBM    STK     AMEX     USD      IBM         IBM        IBM           8314
#>  3 IBM    STK     NYSE     USD      IBM         IBM        IBM           8314
#>  4 IBM    STK     CBOE     USD      IBM         IBM        IBM           8314
#>  5 IBM    STK     PHLX     USD      IBM         IBM        IBM           8314
#>  6 IBM    STK     ISE      USD      IBM         IBM        IBM           8314
#>  7 IBM    STK     CHX      USD      IBM         IBM        IBM           8314
#>  8 IBM    STK     ARCA     USD      IBM         IBM        IBM           8314
#>  9 IBM    STK     ISLAND   USD      IBM         IBM        IBM           8314
#> 10 IBM    STK     DRCTEDGE USD      IBM         IBM        IBM           8314
#> # … with 11 more rows, and 15 more variables: minTick <dbl>,
#> #   mdSizeMultiplier <dbl>, orderTypes <chr>, priceMagnifier <dbl>,
#> #   longName <chr>, primaryExchange <chr>, industry <chr>, category <chr>,
#> #   subcategory <chr>, timeZoneId <chr>, tradingHours <chr>, liquidHours <chr>,
#> #   aggGroup <dbl>, stockType <chr>, exchange_info <list>
…
