Request Account Summary — req_account_summary • InteractiveTradeR
…
    See also

    Other treasury: 
cancel_account_summary(),
cancel_account_updates_multi(),
req_account_updates_multi(),
req_account_updates()

    Examples

# Fetch ACCOUNTS for all tags and groupName = "All", without creating
# a subscription.

req_account_summary()
#> # A tibble: 137 x 4
#>    account   tag                 tag_value  currency
#>  * <chr>     <chr>               <chr>      <chr>   
#>  1 DF1267859 AccountType         INDIVIDUAL ""      
#>  2 DF1267859 Cushion             1          ""      
#>  3 DF1267859 LookAheadNextChange 0          ""      
#>  4 DF1267859 AccruedCash         0.00       "USD"   
#>  5 DF1267859 AvailableFunds      0.00       "USD"   
#>  6 DF1267859 BuyingPower         0.00       "USD"   
#>  7 DF1267859 EquityWithLoanValue 0.00       "USD"   
#>  8 DF1267859 ExcessLiquidity     0.00       "USD"   
#>  9 DF1267859 FullAvailableFunds  0.00       "USD"   
#> 10 DF1267859 FullExcessLiquidity 0.00       "USD"   
#> # … with 127 more rows

# View the updated ACCOUNTS object in the treasury
treasury$ACCOUNTS
#> # A tibble: 209 x 4
#>    account   tag                 tag_value  currency
#>  * <chr>     <chr>               <chr>      <chr>   
#>  1 DF1267859 AccountType         INDIVIDUAL ""      
#>  2 DF1267859 Cushion             1          ""      
#>  3 DF1267859 LookAheadNextChange 0          ""      
#>  4 DF1267859 AccruedCash         0.00       "USD"   
#>  5 DF1267859 AvailableFunds      0.00       "USD"   
#>  6 DF1267859 BuyingPower         0.00       "USD"   
#>  7 DF1267859 EquityWithLoanValue 0.00       "USD"   
#>  8 DF1267859 ExcessLiquidity     0.00       "USD"   
#>  9 DF1267859 FullAvailableFunds  0.00       "USD"   
#> 10 DF1267859 FullExcessLiquidity 0.00       "USD"   
#> # … with 199 more rows
…
# As above, using some example $LEDGER tags:
treasury$ACCOUNTS <- NULL
req_account_summary(tags = c("TotalCashValue", "BuyingPower", "$LEDGER"))
#> # A tibble: 156 x 4
#>    account   tag               tag_value currency
#>  * <chr>     <chr>             <chr>     <chr>   
#>  1 DF1267859 BuyingPower       0.00      USD     
#>  2 DF1267859 TotalCashValue    0.00      USD     
#>  3 DF1267859 Currency          BASE      BASE    
#>  4 DF1267859 CashBalance       0.00      BASE    
#>  5 DF1267859 TotalCashBalance  0.00      BASE    
#>  6 DF1267859 AccruedCash       0.00      BASE    
#>  7 DF1267859 StockMarketValue  0.00      BASE    
#>  8 DF1267859 OptionMarketValue 0.00      BASE    
#>  9 DF1267859 FutureOptionValue 0.00      BASE    
#> 10 DF1267859 FuturesPNL        0.00      BASE    
#> # … with 146 more rows
treasury$ACCOUNTS
#> # A tibble: 156 x 4
#>    account   tag               tag_value currency
#>  * <chr>     <chr>             <chr>     <chr>   
#>  1 DF1267859 BuyingPower       0.00      USD     
#>  2 DF1267859 TotalCashValue    0.00      USD     
#>  3 DF1267859 Currency          BASE      BASE    
#>  4 DF1267859 CashBalance       0.00      BASE    
#>  5 DF1267859 TotalCashBalance  0.00      BASE    
#>  6 DF1267859 AccruedCash       0.00      BASE    
#>  7 DF1267859 StockMarketValue  0.00      BASE    
#>  8 DF1267859 OptionMarketValue 0.00      BASE    
#>  9 DF1267859 FutureOptionValue 0.00      BASE    
#> 10 DF1267859 FuturesPNL        0.00      BASE    
#> # … with 146 more rows

treasury$ACCOUNTS <- NULL
req_account_summary(tags = c("TotalCashValue", "BuyingPower", "$LEDGER:ALL"))
#> # A tibble: 84 x 4
#>    account   tag            tag_value  currency
#>  * <chr>     <chr>          <chr>      <chr>   
#>  1 DF1267859 BuyingPower    0.00       USD     
#>  2 DF1267859 TotalCashValue 0.00       USD     
#>  3 DU1267860 BuyingPower    4074096.59 USD     
#>  4 DU1267860 TotalCashValue 1014815.02 USD     
#>  5 DU1267861 BuyingPower    3801322.86 USD     
#>  6 DU1267861 TotalCashValue 818303.31  USD     
#>  7 DU1267862 BuyingPower    4077227.21 USD     
#>  8 DU1267862 TotalCashValue 1021574.85 USD     
#>  9 DU1267863 BuyingPower    4082946.57 USD     
#> 10 DU1267863 TotalCashValue 1020092.16 USD     
#> # … with 74 more rows
treasury$ACCOUNTS
#> # A tibble: 84 x 4
#>    account   tag            tag_value  currency
#>  * <chr>     <chr>          <chr>      <chr>   
#>  1 DF1267859 BuyingPower    0.00       USD     
#>  2 DF1267859 TotalCashValue 0.00       USD     
#>  3 DU1267860 BuyingPower    4074096.59 USD     
#>  4 DU1267860 TotalCashValue 1014815.02 USD     
#>  5 DU1267861 BuyingPower    3801322.86 USD     
#>  6 DU1267861 TotalCashValue 818303.31  USD     
#>  7 DU1267862 BuyingPower    4077227.21 USD     
#>  8 DU1267862 TotalCashValue 1021574.85 USD     
#>  9 DU1267863 BuyingPower    4082946.57 USD     
#> 10 DU1267863 TotalCashValue 1020092.16 USD     
#> # … with 74 more rows
…
#### This example involves setting up account summary subscriptions. Make sure
#### that you actually have positions whose values are changing; i.e.,
#### accounts aren't empty, the market is currently open, etc.

## Open up a socket connection (unless you have one open already):
create_new_connections(1)

# Start an account summary subscription for the default group ("All") using
# all of the possible tags:
req_account_summary(channel = "async")

# Within three minutes of starting the subscription, take a look at the
# ACCOUNTS object in the treasury:
treasury$ACCOUNTS
#> # A tibble: 209 x 4
#>    account   tag                 tag_value  currency
#>  * <chr>     <chr>               <chr>      <chr>   
#>  1 DF1267859 AccountType         INDIVIDUAL ""      
#>  2 DF1267859 Cushion             1          ""      
#>  3 DF1267859 LookAheadNextChange 0          ""      
#>  4 DF1267859 AccruedCash         0.00       "USD"   
#>  5 DF1267859 AvailableFunds      0.00       "USD"   
#>  6 DF1267859 BuyingPower         0.00       "USD"   
#>  7 DF1267859 EquityWithLoanValue 0.00       "USD"   
#>  8 DF1267859 ExcessLiquidity     0.00       "USD"   
#>  9 DF1267859 FullAvailableFunds  0.00       "USD"   
#> 10 DF1267859 FullExcessLiquidity 0.00       "USD"   
#> # … with 199 more rows
…
# So, wait a while. For example's sake, let's wait a little over 3 minutes:
Sys.sleep(200)

# Keep calling...
read_sock_drawer()

# ...a few times, waiting 10 or 20 seconds in between calls. After 3 minutes
# have passed -- and probably before that -- you should see the
# ACCOUNTS object update.

# After updating, take a look in your treasury...
treasury$ACCOUNTS
#> # A tibble: 209 x 4
#>    account   tag                 tag_value  currency
#>  * <chr>     <chr>               <chr>      <chr>   
#>  1 DU1267861 Cushion             0.955264   ""      
#>  2 DU1267861 EquityWithLoanValue 994908.81  "USD"   
#>  3 DU1267861 NetLiquidation      994947.04  "USD"   
#>  4 DU1267861 TotalCashValue      818302.86  "USD"   
#>  5 DU1267861 BuyingPower         3800497.54 "USD"   
#>  6 DU1267861 GrossPositionValue  177608.71  "USD"   
#>  7 DU1267861 InitMarginReq       44784.43   "USD"   
#>  8 DU1267861 MaintMarginReq      44510.34   "USD"   
#>  9 DU1267861 AvailableFunds      950124.39  "USD"   
#> 10 DU1267861 ExcessLiquidity     950436.70  "USD"   
#> # … with 199 more rows
…
