Request Account Updates — req_account_updates • InteractiveTradeR
…
####
#### Example 1: Fetch account update for one account
####

# Pick a random account for this example or specify one yourself,
#   e.g., acct <- "DU1234567"
acct <- sample(req_managed_accts(), 1)
acct
#> [1] "DU1267862"

# Fetch account updates for the account, without starting a subscription
req_account_updates(acct)
#> $ACCOUNTS
#> # A tibble: 171 x 4
#>    account   tag                   tag_value  currency
#>  * <chr>     <chr>                 <chr>      <chr>   
#>  1 DU1267862 AccountType           INDIVIDUAL ""      
#>  2 DU1267862 AccountCode           DU1267862  ""      
#>  3 DU1267862 AccountReady          TRUE       ""      
#>  4 DU1267862 Cushion               0.998041   ""      
#>  5 DU1267862 DayTradesRemaining    -1         ""      
#>  6 DU1267862 DayTradesRemainingT+1 -1         ""      
#>  7 DU1267862 DayTradesRemainingT+2 -1         ""      
#>  8 DU1267862 DayTradesRemainingT+3 -1         ""      
#>  9 DU1267862 DayTradesRemainingT+4 -1         ""      
#> 10 DU1267862 Leverage-S            0.00       ""      
#> # … with 161 more rows
…
# Print the ACCOUNTS
treasury$ACCOUNTS
#> # A tibble: 171 x 4
#>    account   tag                   tag_value  currency
#>  * <chr>     <chr>                 <chr>      <chr>   
#>  1 DU1267862 AccountType           INDIVIDUAL ""      
#>  2 DU1267862 AccountCode           DU1267862  ""      
#>  3 DU1267862 AccountReady          TRUE       ""      
#>  4 DU1267862 Cushion               0.998041   ""      
#>  5 DU1267862 DayTradesRemaining    -1         ""      
#>  6 DU1267862 DayTradesRemainingT+1 -1         ""      
#>  7 DU1267862 DayTradesRemainingT+2 -1         ""      
#>  8 DU1267862 DayTradesRemainingT+3 -1         ""      
#>  9 DU1267862 DayTradesRemainingT+4 -1         ""      
#> 10 DU1267862 Leverage-S            0.00       ""      
#> # … with 161 more rows
…
# Open up a socket
create_new_connections(1)

# Pick another random account, or replace the "sample()" with an account code
# (e.g., "DU7654321") as desired
acct2 <- sample(req_managed_accts(), 1)

# Make the call, this time with channel = "async"
req_account_updates(acct2, channel = "async")

# Within three minutes of starting the subscription, take a look at the
# ACCOUNTS and PORTFOLIO_VALUE objects in the treasury:
treasury$ACCOUNTS
#> # A tibble: 147 x 4
#>    account   tag                   tag_value  currency
#>  * <chr>     <chr>                 <chr>      <chr>   
#>  1 DU1267863 AccountType           INDIVIDUAL ""      
#>  2 DU1267863 AccountCode           DU1267863  ""      
#>  3 DU1267863 AccountReady          TRUE       ""      
#>  4 DU1267863 Cushion               0.999866   ""      
#>  5 DU1267863 DayTradesRemaining    -1         ""      
#>  6 DU1267863 DayTradesRemainingT+1 -1         ""      
#>  7 DU1267863 DayTradesRemainingT+2 -1         ""      
#>  8 DU1267863 DayTradesRemainingT+3 -1         ""      
#>  9 DU1267863 DayTradesRemainingT+4 -1         ""      
#> 10 DU1267863 Leverage-S            0.00       ""      
#> # … with 137 more rows
…
# Wait a little over 3 minutes
Sys.sleep(200)

# Keep calling...
read_sock_drawer(verbose = TRUE)
#> ✔ Updated the following treasury objects:
#>   "PORTFOLIO_VALUE"
# ...a few times, waiting 10 or 20 seconds in between calls. After 3 minutes
# have passed -- but probably before that -- you should see either or both of
# the ACCOUNTS and PORTFOLIO_VALUE objects update.

# After updating, take a look in the treasury:
treasury$ACCOUNTS
#> # A tibble: 147 x 4
#>    account   tag                   tag_value  currency
#>  * <chr>     <chr>                 <chr>      <chr>   
#>  1 DU1267863 AccountType           INDIVIDUAL ""      
#>  2 DU1267863 AccountCode           DU1267863  ""      
#>  3 DU1267863 AccountReady          TRUE       ""      
#>  4 DU1267863 Cushion               0.999866   ""      
#>  5 DU1267863 DayTradesRemaining    -1         ""      
#>  6 DU1267863 DayTradesRemainingT+1 -1         ""      
#>  7 DU1267863 DayTradesRemainingT+2 -1         ""      
#>  8 DU1267863 DayTradesRemainingT+3 -1         ""      
#>  9 DU1267863 DayTradesRemainingT+4 -1         ""      
#> 10 DU1267863 Leverage-S            0.00       ""      
#> # … with 137 more rows
…
